Modeling Product #7
…
>PEPPY only has multiple sizes of their one drink “GENTLE DRINK RED
PEPPER COLA”

# Check Tenure of all items
filtered_df %>%
  mutate(DATE = as.Date(DATE)) %>%
    group_by(ITEM) %>%
  summarize(Date_Difference = difftime(max(DATE), min(DATE), units = "weeks"),
            Total_Unit_Sales = sum(UNIT_SALES)) %>%
  arrange(Date_Difference)

## # A tibble: 38 × 3
##    ITEM                                         Date_Difference Total_Unit_Sales
##    <chr>                                        <drtn>                     <dbl>
##  1 PEPPY GENTLE DRINK RED  PEPPER COLA CUP 8 L…   0 weeks                      1
##  2 PEPPY GENTLE DRINK RED  PEPPER COLA JUG 12.…   0 weeks                      1
##  3 PEPPY GENTLE DRINK RED  PEPPER COLA CUP 12 …  71 weeks                      2
##  4 PEPPY GENTLE DRINK RED  PEPPER COLA JUG 16 …  74 weeks                     18
##  5 PEPPY GENTLE DRINK RED  PEPPER COLA JUG 12 …  83 weeks                    326
##  6 PEPPY GENTLE DRINK RED  PEPPER COLA JUG 13.… 104 weeks                  17234
##  7 PEPPY GENTLE DRINK RED  PEPPER COLA JUG 67.… 113 weeks                   7818
##  8 PEPPY GENTLE DRINK RED  PEPPER COLA CUP 7.5… 120 weeks                  20545
##  9 PEPPY GENTLE DRINK RED  PEPPER COLA CUP 12 … 128 weeks                    524
## 10 PEPPY GENTLE DRINK RED  PEPPER COLA JUG 12 … 134 weeks                    104
## # ℹ 28 more rows
…
